{
    "name": "Player Controls",
    "maps": [
        {
            "name": "Movement",
            "id": "098957d9-70c2-458c-8210-6d98f23fe370",
            "actions": [
                {
                    "name": "Move",
                    "type": "PassThrough",
                    "id": "0010520a-a0cf-4229-acaa-1358ccde3744",
                    "expectedControlType": "Vector2",
                    "processors": "",
                    "interactions": "",
                    "initialStateCheck": false
                },
                {
                    "name": "Walk",
                    "type": "Button",
                    "id": "e0894a5c-c798-490f-a37e-5ea198fad8b0",
                    "expectedControlType": "Button",
                    "processors": "",
                    "interactions": "",
                    "initialStateCheck": false
                }
            ],
            "bindings": [
                {
                    "name": "2D Vector",
                    "id": "9fb71f30-a103-4cbc-a600-6b690f84c9ea",
                    "path": "2DVector",
                    "interactions": "",
                    "processors": "",
                    "groups": "",
                    "action": "Move",
                    "isComposite": true,
                    "isPartOfComposite": false
                },
                {
                    "name": "up",
                    "id": "d83f1f52-ab81-46e1-ab04-f4db438c988c",
                    "path": "<Keyboard>/w",
                    "interactions": "",
                    "processors": "",
                    "groups": "",
                    "action": "Move",
                    "isComposite": false,
                    "isPartOfComposite": true
                },
                {
                    "name": "down",
                    "id": "8a49fe01-1995-4ad7-80cb-c0dad16bc22b",
                    "path": "<Keyboard>/s",
                    "interactions": "",
                    "processors": "",
                    "groups": "",
                    "action": "Move",
                    "isComposite": false,
                    "isPartOfComposite": true
                },
                {
                    "name": "left",
                    "id": "cec9da42-9d5e-4beb-8de5-5c3ec4c4e7e1",
                    "path": "<Keyboard>/a",
                    "interactions": "",
                    "processors": "",
                    "groups": "",
                    "action": "Move",
                    "isComposite": false,
                    "isPartOfComposite": true
                },
                {
                    "name": "right",
                    "id": "cf86308a-ae01-43a5-8203-d0e47c868493",
                    "path": "<Keyboard>/d",
                    "interactions": "",
                    "processors": "",
                    "groups": "",
                    "action": "Move",
                    "isComposite": false,
                    "isPartOfComposite": true
                },
                {
                    "name": "",
                    "id": "46f43112-487b-4e04-8410-b75fee2ad2cb",
                    "path": "<Keyboard>/ctrl",
                    "interactions": "",
                    "processors": "",
                    "groups": "",
                    "action": "Walk",
                    "isComposite": false,
                    "isPartOfComposite": false
                }
            ]
        },
        {
            "name": "Combat",
            "id": "916b9c55-a98f-4f72-9556-88369c65dcd7",
            "actions": [
                {
                    "name": "Attack",
                    "type": "Button",
                    "id": "dc2ce321-964e-430a-8233-7ab80b350c58",
                    "expectedControlType": "Button",
                    "processors": "",
                    "interactions": "",
                    "initialStateCheck": false
                },
                {
                    "name": "Dash",
                    "type": "Button",
                    "id": "01229991-f6f6-452e-82e6-f6ca63260b87",
                    "expectedControlType": "Button",
                    "processors": "",
                    "interactions": "",
                    "initialStateCheck": false
                }
            ],
            "bindings": [
                {
                    "name": "",
                    "id": "3268703f-c032-44fb-bf26-7236ce222baf",
                    "path": "<Mouse>/leftButton",
                    "interactions": "",
                    "processors": "",
                    "groups": "",
                    "action": "Attack",
                    "isComposite": false,
                    "isPartOfComposite": false
                },
                {
                    "name": "",
                    "id": "21568626-b84a-4191-b3bc-034f08c9ff9b",
                    "path": "<Keyboard>/space",
                    "interactions": "",
                    "processors": "",
                    "groups": "",
                    "action": "Dash",
                    "isComposite": false,
                    "isPartOfComposite": false
                }
            ]
        },
        {
            "name": "Inventory",
            "id": "af7f6215-8403-4c4e-8efa-b42ad9f48f65",
            "actions": [
                {
                    "name": "KeyBindings",
                    "type": "Value",
                    "id": "726d9c1f-73c2-4c38-8fff-e0f5663a7b9e",
                    "expectedControlType": "Button",
                    "processors": "",
                    "interactions": "",
                    "initialStateCheck": true
                }
            ],
            "bindings": [
                {
                    "name": "",
                    "id": "2ad5d63d-c25a-4aa1-9256-20bc17f1d073",
                    "path": "<Keyboard>/1",
                    "interactions": "",
                    "processors": "Scale",
                    "groups": "",
                    "action": "KeyBindings",
                    "isComposite": false,
                    "isPartOfComposite": false
                },
                {
                    "name": "",
                    "id": "933279ee-f885-4822-b1f0-60ac65e73438",
                    "path": "<Keyboard>/2",
                    "interactions": "",
                    "processors": "Scale(factor=2)",
                    "groups": "",
                    "action": "KeyBindings",
                    "isComposite": false,
                    "isPartOfComposite": false
                },
                {
                    "name": "",
                    "id": "27acc1f3-01dc-4fd4-b887-6aeccb3624de",
                    "path": "<Keyboard>/3",
                    "interactions": "",
                    "processors": "Scale(factor=3)",
                    "groups": "",
                    "action": "KeyBindings",
                    "isComposite": false,
                    "isPartOfComposite": false
                },
                {
                    "name": "",
                    "id": "52f47b1c-f5ef-4da6-b8cf-932cc2fc3ea2",
                    "path": "<Keyboard>/4",
                    "interactions": "",
                    "processors": "Scale(factor=4)",
                    "groups": "",
                    "action": "KeyBindings",
                    "isComposite": false,
                    "isPartOfComposite": false
                },
                {
                    "name": "",
                    "id": "eb699c8a-37b3-4872-93b4-e0bf05f2b033",
                    "path": "<Keyboard>/5",
                    "interactions": "",
                    "processors": "Scale(factor=5)",
                    "groups": "",
                    "action": "KeyBindings",
                    "isComposite": false,
                    "isPartOfComposite": false
                }
            ]
        }
    ],
    "controlSchemes": []
}